LET,Freq
E,12.49%
T,9.28%
A,8.04%
O,7.64%
I,7.57%
N,7.23%
S,6.51%
R,6.28%
H,5.05%
L,4.07%
D,3.82%
C,3.34%
U,2.73%
M,2.51%
F,2.40%
P,2.14%
G,1.87%
W,1.68%
Y,1.66%
B,1.48%
V,1.05%
K,0.54%
X,0.23%
J,0.16%
Q,0.12%
Z,0.09%
